…
    ## [1] 64

Paul Romer is published in 42 different journals. William Nordhaus is published in 64 different journals. This could show a broader level of expertise for Nordhaus as he is published in many more different journals that could span slightly different topics and fields.

``` r
# citations for each journal - Paul Romer

journals_paul_df <- paul_romer_df[which(journal_paul_logical %in% TRUE),]
journals_paul_df$journal <- factor(journals_paul_df$journal)
journals_paul_df_citations <- summarise(group_by(journals_paul_df, journal), total_citations = sum(citations, na.rm = FALSE))

journals_paul_df_citations
```

    ## # A tibble: 42 x 2
    ##    journal                                                       total_citations
    ##    <fct>                                                                   <int>
    ##  1 American Economic Journal: Macroeconomics 2 (1), 224-45, 2010             613
    ##  2 City Journal 20 (4), 2010                                                  12
    ##  3 Econometrica: Journal of the Econometric Society, 897-908, 1~             102
    ##  4 Information Technology Journal 12 (10), pp: 66-pp: 66, 1981                NA
    ##  5 Information Technology Journal 8 (5), 633-653, 1996                        NA
    ##  6 Journal of Applied Corporate Finance 11, 2, 1998                            5
    ##  7 Journal of Applied Corporate Finance 11, 8-27, 1998                        30
    ##  8 Journal of Applied Sciences 10 (4), pp: 45-71-pp: 45-71, 2008              NA
    ##  9 Journal of Applied Sciences 13 (20), 155-173, 1962                         NA
    ## 10 Journal of Applied Sciences 15 (2), 41-47, 1978                            NA
    ## # ... with 32 more rows

These are Romer's citation counts for each journal. Some are NA as there is no data on the citation number for these journals.

``` r
# citations for each journal - William Nordhaus

journals_william_df <- william_nordhaus_df[which(journal_william_logical %in% TRUE),]
journals_william_df$journal <- factor(journals_william_df$journal)
journals_william_df_citations <- summarise(group_by(journals_william_df, journal), total_citations = sum(citations, na.rm = FALSE))

journals_william_df_citations
```

    ## # A tibble: 64 x 2
    ##    journal                                                       total_citations
    ##    <fct>                                                                   <int>
    ##  1 American Bar Association Journal 69 (11), 1724-1724, 1983                  NA
    ##  2 American Economic Journal: Economic Policy 10 (3), 333-60, 2~              87
    ##  3 American Journal of Economics and sociology 64 (1), 367-392,~              70
    ##  4 Cambridge Journal of Economics 3 (2), 153-163, 1979                        44
    ##  5 Economic Journal 101, 407, 1991                                            28
    ##  6 Economic Journal 125 (583), 603-620, 2015                                   1
    ##  7 Economic Journal 82 (327), 853-882, 1972                                  211
    ##  8 Economic Journal, 1991                                                     NA
    ##  9 Energy Journal-Cleveland 16 (2), 132-134, 1995                              9
    ## 10 International Social Science Journal 35 (3), 493-506, 1983                  1
    ## # ... with 54 more rows

These are Nordhaus' citation counts for each journal. Some are NA as there is no data on the citation number for these journals.

``` r
# most influential journal

arrange(journals_paul_df_citations, desc(total_citations))
```

    ## # A tibble: 42 x 2
    ##    journal                                                       total_citations
    ##    <fct>                                                                   <int>
    ##  1 Journal of political Economy 98 (5, Part 2), S71-S102, 1990             29455
    ##  2 Journal of political economy 94 (5), 1002-1037, 1986                    27658
    ##  3 Journal of Economic perspectives 8 (1), 3-22, 1994                       4964
    ##  4 The Quarterly Journal of Economics 106 (2), 531-555, 1991                2698
    ##  5 Journal of monetary economics 32 (3), 543-573, 1993                      1709
    ##  6 Journal of development Economics 43 (1), 5-38, 1994                      1099
    ##  7 American Economic Journal: Macroeconomics 2 (1), 224-45, 2010             613
    ##  8 Econometrica: Journal of the Econometric Society, 897-908, 1~             102
    ##  9 Journal of Economic Theory 50 (1), 1-21, 1990                              90
    ## 10 Journal of Political Economy 94 (5), 1002-1037, 1986                       61
    ## # ... with 32 more rows

``` r
arrange(journals_william_df_citations, desc(total_citations))
```

    ## # A tibble: 64 x 2
    ##    journal                                                       total_citations
    ##    <fct>                                                                   <int>
    ##  1 Journal of economic literature 45 (3), 686-702, 2007                     2596
    ##  2 The Energy Journal 18 (1), 1997                                          1735
    ##  3 The economic journal 101 (407), 920-937, 1991                            1643
    ##  4 The Energy Journal, 37-65, 1991                                           473
    ##  5 The Economic Journal 83 (332), 1156-1183, 1973                            404
    ##  6 Journal of the Association of Environmental and Resource Eco~             287
    ##  7 The Energy Journal, 93-130, 1999                                          284
    ##  8 Journal of economic Perspectives 7 (4), 11-25, 1993                       247
    ##  9 The BE Journal of Macroeconomics 8 (1), 2008                              230
    ## 10 The Journal of Economic History 67 (1), 128-159, 2007                     228
    ## # ... with 54 more rows
…
